{"frames": {

"bobbing0001.png":
{
	"frame": {"x":2,"y":2,"w":134,"h":38},
	"rotated": false,
	"trimmed": true,
	"spriteSourceSize": {"x":0,"y":59,"w":134,"h":38},
	"sourceSize": {"w":140,"h":174}
},
"bobbing0002.png":
{
	"frame": {"x":274,"y":2,"w":134,"h":52},
	"rotated": false,
	"trimmed": true,
	"spriteSourceSize": {"x":0,"y":45,"w":134,"h":52},
	"sourceSize": {"w":140,"h":174}
},
"bobbing0003.png":
{
	"frame": {"x":410,"y":2,"w":134,"h":64},
	"rotated": false,
	"trimmed": true,
	"spriteSourceSize": {"x":0,"y":33,"w":134,"h":64},
	"sourceSize": {"w":140,"h":174}
},
"bobbing0004.png":
{
	"frame": {"x":657,"y":220,"w":134,"h":78},
	"rotated": false,
	"trimmed": true,
	"spriteSourceSize": {"x":0,"y":19,"w":134,"h":78},
	"sourceSize": {"w":140,"h":174}
},
"bobbing0005.png":
{
	"frame": {"x":546,"y":384,"w":134,"h":92},
	"rotated": false,
	"trimmed": true,
	"spriteSourceSize": {"x":0,"y":5,"w":134,"h":92},
	"sourceSize": {"w":140,"h":174}
},
"bobbing0006.png":
{
	"frame": {"x":818,"y":392,"w":134,"h":94},
	"rotated": false,
	"trimmed": true,
	"spriteSourceSize": {"x":0,"y":3,"w":134,"h":94},
	"sourceSize": {"w":140,"h":174}
},
"bobbing0007.png":
{
	"frame": {"x":682,"y":392,"w":134,"h":94},
	"rotated": false,
	"trimmed": true,
	"spriteSourceSize": {"x":0,"y":3,"w":134,"h":94},
	"sourceSize": {"w":140,"h":174}
},
"bobbing0008.png":
{
	"frame": {"x":2,"y":452,"w":134,"h":98},
	"rotated": false,
	"trimmed": true,
	"spriteSourceSize": {"x":0,"y":1,"w":134,"h":98},
	"sourceSize": {"w":140,"h":174}
},
"bobbing0009.png":
{
	"frame": {"x":410,"y":384,"w":134,"h":90},
	"rotated": false,
	"trimmed": true,
	"spriteSourceSize": {"x":0,"y":7,"w":134,"h":90},
	"sourceSize": {"w":140,"h":174}
},
"bobbing0010.png":
{
	"frame": {"x":2,"y":366,"w":134,"h":84},
	"rotated": false,
	"trimmed": true,
	"spriteSourceSize": {"x":0,"y":13,"w":134,"h":84},
	"sourceSize": {"w":140,"h":174}
},
"bobbing0011.png":
{
	"frame": {"x":521,"y":220,"w":134,"h":78},
	"rotated": false,
	"trimmed": true,
	"spriteSourceSize": {"x":0,"y":19,"w":134,"h":78},
	"sourceSize": {"w":140,"h":174}
},
"bobbing0012.png":
{
	"frame": {"x":385,"y":218,"w":134,"h":78},
	"rotated": false,
	"trimmed": true,
	"spriteSourceSize": {"x":0,"y":19,"w":134,"h":78},
	"sourceSize": {"w":140,"h":174}
},
"bobbing0013.png":
{
	"frame": {"x":249,"y":214,"w":134,"h":78},
	"rotated": false,
	"trimmed": true,
	"spriteSourceSize": {"x":0,"y":19,"w":134,"h":78},
	"sourceSize": {"w":140,"h":174}
},
"bobbing0014.png":
{
	"frame": {"x":113,"y":202,"w":134,"h":78},
	"rotated": false,
	"trimmed": true,
	"spriteSourceSize": {"x":0,"y":19,"w":134,"h":78},
	"sourceSize": {"w":140,"h":174}
},
"bobbing0015.png":
{
	"frame": {"x":518,"y":300,"w":134,"h":82},
	"rotated": false,
	"trimmed": true,
	"spriteSourceSize": {"x":0,"y":15,"w":134,"h":82},
	"sourceSize": {"w":140,"h":174}
},
"bobbing0016.png":
{
	"frame": {"x":274,"y":382,"w":134,"h":88},
	"rotated": false,
	"trimmed": true,
	"spriteSourceSize": {"x":0,"y":9,"w":134,"h":88},
	"sourceSize": {"w":140,"h":174}
},
"bobbing0017.png":
{
	"frame": {"x":138,"y":376,"w":134,"h":86},
	"rotated": false,
	"trimmed": true,
	"spriteSourceSize": {"x":0,"y":11,"w":134,"h":86},
	"sourceSize": {"w":140,"h":174}
},
"bobbing0018.png":
{
	"frame": {"x":773,"y":306,"w":134,"h":84},
	"rotated": false,
	"trimmed": true,
	"spriteSourceSize": {"x":0,"y":13,"w":134,"h":84},
	"sourceSize": {"w":140,"h":174}
},
"bobbing0019.png":
{
	"frame": {"x":382,"y":298,"w":134,"h":82},
	"rotated": false,
	"trimmed": true,
	"spriteSourceSize": {"x":0,"y":15,"w":134,"h":82},
	"sourceSize": {"w":140,"h":174}
},
"bobbing0020.png":
{
	"frame": {"x":246,"y":294,"w":134,"h":80},
	"rotated": false,
	"trimmed": true,
	"spriteSourceSize": {"x":0,"y":17,"w":134,"h":80},
	"sourceSize": {"w":140,"h":174}
},
"bobbing0021.png":
{
	"frame": {"x":546,"y":2,"w":134,"h":66},
	"rotated": false,
	"trimmed": true,
	"spriteSourceSize": {"x":0,"y":31,"w":134,"h":66},
	"sourceSize": {"w":140,"h":174}
},
"bobbing0022.png":
{
	"frame": {"x":138,"y":2,"w":134,"h":52},
	"rotated": false,
	"trimmed": true,
	"spriteSourceSize": {"x":0,"y":45,"w":134,"h":52},
	"sourceSize": {"w":140,"h":174}
},
"bobbing0023.png":
{
	"frame": {"x":2,"y":2,"w":134,"h":38},
	"rotated": false,
	"trimmed": true,
	"spriteSourceSize": {"x":0,"y":59,"w":134,"h":38},
	"sourceSize": {"w":140,"h":174}
},
"digging0001.png":
{
	"frame": {"x":2,"y":42,"w":129,"h":70},
	"rotated": false,
	"trimmed": true,
	"spriteSourceSize": {"x":0,"y":7,"w":129,"h":70},
	"sourceSize": {"w":145,"h":90}
},
"digging0002.png":
{
	"frame": {"x":682,"y":2,"w":127,"h":66},
	"rotated": false,
	"trimmed": true,
	"spriteSourceSize": {"x":3,"y":6,"w":127,"h":66},
	"sourceSize": {"w":145,"h":90}
},
"digging0003.png":
{
	"frame": {"x":811,"y":2,"w":125,"h":66},
	"rotated": false,
	"trimmed": true,
	"spriteSourceSize": {"x":6,"y":7,"w":125,"h":66},
	"sourceSize": {"w":145,"h":90}
},
"digging0004.png":
{
	"frame": {"x":2,"y":114,"w":119,"h":72},
	"rotated": false,
	"trimmed": true,
	"spriteSourceSize": {"x":11,"y":6,"w":119,"h":72},
	"sourceSize": {"w":145,"h":90}
},
"digging0005.png":
{
	"frame": {"x":565,"y":142,"w":111,"h":76},
	"rotated": false,
	"trimmed": true,
	"spriteSourceSize": {"x":15,"y":6,"w":111,"h":76},
	"sourceSize": {"w":145,"h":90}
},
"digging0006.png":
{
	"frame": {"x":793,"y":220,"w":109,"h":80},
	"rotated": false,
	"trimmed": true,
	"spriteSourceSize": {"x":16,"y":4,"w":109,"h":80},
	"sourceSize": {"w":145,"h":90}
},
"digging0007.png":
{
	"frame": {"x":914,"y":142,"w":105,"h":80},
	"rotated": false,
	"trimmed": true,
	"spriteSourceSize": {"x":16,"y":4,"w":105,"h":80},
	"sourceSize": {"w":145,"h":90}
},
"digging0008.png":
{
	"frame": {"x":904,"y":224,"w":115,"h":80},
	"rotated": false,
	"trimmed": true,
	"spriteSourceSize": {"x":15,"y":3,"w":115,"h":80},
	"sourceSize": {"w":145,"h":90}
},
"digging0009.png":
{
	"frame": {"x":678,"y":142,"w":125,"h":76},
	"rotated": false,
	"trimmed": true,
	"spriteSourceSize": {"x":8,"y":4,"w":125,"h":76},
	"sourceSize": {"w":145,"h":90}
},
"digging0010.png":
{
	"frame": {"x":133,"y":56,"w":137,"h":70},
	"rotated": false,
	"trimmed": true,
	"spriteSourceSize": {"x":3,"y":5,"w":137,"h":70},
	"sourceSize": {"w":145,"h":90}
},
"digging0011.png":
{
	"frame": {"x":683,"y":70,"w":143,"h":70},
	"rotated": false,
	"trimmed": true,
	"spriteSourceSize": {"x":0,"y":5,"w":143,"h":70},
	"sourceSize": {"w":145,"h":90}
},
"digging0012.png":
{
	"frame": {"x":538,"y":70,"w":143,"h":70},
	"rotated": false,
	"trimmed": true,
	"spriteSourceSize": {"x":0,"y":6,"w":143,"h":70},
	"sourceSize": {"w":145,"h":90}
},
"digging0013.png":
{
	"frame": {"x":272,"y":56,"w":135,"h":70},
	"rotated": false,
	"trimmed": true,
	"spriteSourceSize": {"x":1,"y":6,"w":135,"h":70},
	"sourceSize": {"w":145,"h":90}
},
"digging0014.png":
{
	"frame": {"x":2,"y":282,"w":127,"h":78},
	"rotated": false,
	"trimmed": true,
	"spriteSourceSize": {"x":8,"y":6,"w":127,"h":78},
	"sourceSize": {"w":145,"h":90}
},
"digging0015.png":
{
	"frame": {"x":654,"y":300,"w":117,"h":82},
	"rotated": false,
	"trimmed": true,
	"spriteSourceSize": {"x":15,"y":7,"w":117,"h":82},
	"sourceSize": {"w":145,"h":90}
},
"digging0016.png":
{
	"frame": {"x":131,"y":282,"w":113,"h":82},
	"rotated": false,
	"trimmed": true,
	"spriteSourceSize": {"x":15,"y":8,"w":113,"h":82},
	"sourceSize": {"w":145,"h":90}
},
"digging0017.png":
{
	"frame": {"x":805,"y":142,"w":107,"h":76},
	"rotated": false,
	"trimmed": true,
	"spriteSourceSize": {"x":16,"y":9,"w":107,"h":76},
	"sourceSize": {"w":145,"h":90}
},
"digging0018.png":
{
	"frame": {"x":123,"y":128,"w":109,"h":72},
	"rotated": false,
	"trimmed": true,
	"spriteSourceSize": {"x":8,"y":8,"w":109,"h":72},
	"sourceSize": {"w":145,"h":90}
},
"digging0019.png":
{
	"frame": {"x":234,"y":128,"w":117,"h":72},
	"rotated": false,
	"trimmed": true,
	"spriteSourceSize": {"x":4,"y":8,"w":117,"h":72},
	"sourceSize": {"w":145,"h":90}
},
"digging0020.png":
{
	"frame": {"x":409,"y":68,"w":127,"h":70},
	"rotated": false,
	"trimmed": true,
	"spriteSourceSize": {"x":1,"y":7,"w":127,"h":70},
	"sourceSize": {"w":145,"h":90}
},
"intoDive1.png":
{
	"frame": {"x":353,"y":140,"w":105,"h":72},
	"rotated": false,
	"trimmed": true,
	"spriteSourceSize": {"x":9,"y":11,"w":105,"h":72},
	"sourceSize": {"w":145,"h":90}
},
"intoDive2.png":
{
	"frame": {"x":460,"y":142,"w":103,"h":74},
	"rotated": false,
	"trimmed": true,
	"spriteSourceSize": {"x":12,"y":10,"w":103,"h":74},
	"sourceSize": {"w":145,"h":90}
},
"intoDive3.png":
{
	"frame": {"x":2,"y":188,"w":109,"h":78},
	"rotated": false,
	"trimmed": true,
	"spriteSourceSize": {"x":10,"y":12,"w":109,"h":78},
	"sourceSize": {"w":145,"h":90}
},
"intoDive4.png":
{
	"frame": {"x":828,"y":70,"w":117,"h":70},
	"rotated": false,
	"trimmed": true,
	"spriteSourceSize": {"x":4,"y":5,"w":117,"h":70},
	"sourceSize": {"w":145,"h":90}
}},
"meta": {
	"app": "http://www.texturepacker.com",
	"version": "1.0",
	"image": "whackSheet.png",
	"format": "RGBA8888",
	"size": {"w":1024,"h":1024},
	"scale": "1",
	"smartupdate": "$TexturePacker:SmartUpdate:68b5320174bd3672b2b5e41fae21fed5$"
}
}
